state_name_state,state_and_local_government_outstanding_debt_long_term_and_short_term_in_millions_of_dollars_asldebt,year,state_land_area_in_square_miles_aland
Alabama,27665.258,2010,50744
Alaska,10189.585,2010,571951.26
Arizona,49436.7,2010,113634.57
Arkansas,13700.124,2010,52068.17
California,403984.771,2010,155959.34
Colorado,50217.811,2010,103717.53
Connecticut,40826.112,2010,4844.8
Delaware,7798.668,2010,1953.56
Florida,153774.817,2010,53926.82
Georgia,52445.684,2010,57906.14
Hawaii,12638.729,2010,6422.62
Idaho,6109.762,2010,82747.21
Illinois,135722.036,2010,55583.58
Indiana,51139.488,2010,35866.9
Iowa,14906.805,2010,55869.36
Kansas,28925.832,2010,81814.88
Kentucky,41246.334,2010,39728.18
Louisiana,35143.74,2010,43561.85
Maine,8910.605,2010,30861.55
Maryland,42542.143,2010,9773.82
Massachusetts,97253.9,2010,7840.02
Michigan,77302.267,2010,56803.82
Minnesota,44886.836,2010,79610.08
Mississippi,13834.119,2010,46906.96
Missouri,44401.822,2010,68885.93
Montana,5992.978,2010,145552.43
Nebraska,13707.793,2010,76872.41
Nevada,28190.455,2010,109825.99
New Hampshire,10913.395,2010,8968.1
New Jersey,98049.914,2010,7417.34
New Mexico,16842.825,2010,121355.53
New York,316667.489,2010,47213.79
North Carolina,51617.645,2010,48710.88
North Dakota,4651.298,2010,68975.93
Ohio,74556.308,2010,40948.38
Oklahoma,18715.904,2010,68667.06
Oregon,33994.612,2010,95996.79
Pennsylvania,122318.519,2010,44816.61
Rhode Island,12197.342,2010,1044.93
South Carolina,37786.293,2010,30109.47
South Dakota,5499.59,2010,75884.64
Tennessee,38352.54,2010,41217.12
Texas,249881.304,2010,261797.12
Utah,18332.664,2010,82143.65
Vermont,4665.743,2010,9249.56
Virginia,61775.699,2010,39594.07
Washington,70582.163,2010,66544.06
West Virginia,10771.663,2010,24077.73
Wisconsin,43090.156,2010,54310.1
Wyoming,2475.918,2010,97100.4
Alabama,26754.942,2009,50744
Alaska,10253.149,2009,571951.26
Arizona,48630.214,2009,113634.57
Arkansas,12978.961,2009,52068.17
California,374631.06,2009,155959.34
Colorado,50872.023,2009,103717.53
Connecticut,38037.661,2009,4844.8
Delaware,8232.007,2009,1953.56
Florida,148131.001,2009,53926.82
Georgia,53075.172,2009,57906.14
Hawaii,11494.952,2009,6422.62
Idaho,5858.168,2009,82747.21
Illinois,128218.384,2009,55583.58
Indiana,51234.108,2009,35866.9
Iowa,15465.298,2009,55869.36
Kansas,27768.581,2009,81814.88
Kentucky,39233.343,2009,39728.18
Louisiana,34366.606,2009,43561.85
Maine,7926.371,2009,30861.55
Maryland,40859.862,2009,9773.82
Massachusetts,97611.812,2009,7840.02
Michigan,80070.872,2009,56803.82
Minnesota,43569.889,2009,79610.08
Mississippi,13459.918,2009,46906.96
Missouri,42597.262,2009,68885.93
Montana,6341.249,2009,145552.43
Nebraska,13398.366,2009,76872.41
Nevada,25900.929,2009,109825.99
New Hampshire,11025.278,2009,8968.1
New Jersey,92641.575,2009,7417.34
New Mexico,16138.01,2009,121355.53
New York,297334.237,2009,47213.79
North Carolina,51737.1,2009,48710.88
North Dakota,4071.207,2009,68975.93
Ohio,75116.859,2009,40948.38
Oklahoma,18356.616,2009,68667.06
Oregon,33246.422,2009,95996.79
Pennsylvania,117618.727,2009,44816.61
Rhode Island,11738.554,2009,1044.93
South Carolina,36724.766,2009,30109.47
South Dakota,5548.587,2009,75884.64
Tennessee,37118.233,2009,41217.12
Texas,229370.56,2009,261797.12
Utah,17807.923,2009,82143.65
Vermont,4536.206,2009,9249.56
Virginia,58541.768,2009,39594.07
Washington,66713.369,2009,66544.06
West Virginia,9965.715,2009,24077.73
Wisconsin,41221.486,2009,54310.1
Wyoming,2260.353,2009,97100.4
Alabama,26968.263,2008,50744
Alaska,9960.329,2008,571951.26
Arizona,43497.126,2008,113634.57
Arkansas,12988.684,2008,52068.17
California,341028.442,2008,155959.34
Colorado,47675.301,2008,103717.53
Connecticut,36621.196,2008,4844.8
Delaware,7943.925,2008,1953.56
Florida,146500.378,2008,53926.82
Georgia,49484.405,2008,57906.14
Hawaii,10733.637,2008,6422.62
Idaho,5687.804,2008,82747.21
Illinois,123934.398,2008,55583.58
Indiana,46443.165,2008,35866.9
Iowa,15470.928,2008,55869.36
Kansas,25394.608,2008,81814.88
Kentucky,37121.938,2008,39728.18
Louisiana,33159.714,2008,43561.85
Maine,7971.412,2008,30861.55
Maryland,40503.178,2008,9773.82
Massachusetts,92716.219,2008,7840.02
Michigan,76230.283,2008,56803.82
Minnesota,41668.32,2008,79610.08
Mississippi,13296.846,2008,46906.96
Missouri,41300.924,2008,68885.93
Montana,6488.379,2008,145552.43
Nebraska,13522.03,2008,76872.41
Nevada,24866.685,2008,109825.99
New Hampshire,10563.147,2008,8968.1
New Jersey,87969.801,2008,7417.34
New Mexico,14194.204,2008,121355.53
New York,273166.944,2008,47213.79
North Carolina,51277.605,2008,48710.88
North Dakota,4027.358,2008,68975.93
Ohio,69907.119,2008,40948.38
Oklahoma,17000.028,2008,68667.06
Oregon,30142.882,2008,95996.79
Pennsylvania,119281.352,2008,44816.61
Rhode Island,11500.716,2008,1044.93
South Carolina,34868.586,2008,30109.47
South Dakota,5354.338,2008,75884.64
Tennessee,35518.424,2008,41217.12
Texas,216398.293,2008,261797.12
Utah,16806.164,2008,82143.65
Vermont,4667.283,2008,9249.56
Virginia,54180.809,2008,39594.07
Washington,64574.788,2008,66544.06
West Virginia,9785.003,2008,24077.73
Wisconsin,42142.445,2008,54310.1
Wyoming,2333.065,2008,97100.4
Alabama,24585.554,2007,50744
Alaska,9996.52,2007,571951.26
Arizona,39330.127,2007,113634.57
Arkansas,12207.546,2007,52068.17
California,330358.707,2007,155959.34
Colorado,46478.296,2007,103717.53
Connecticut,32726.987,2007,4844.8
Delaware,7372.297,2007,1953.56
Florida,134437.597,2007,53926.82
Georgia,48469.875,2007,57906.14
Hawaii,10303.64,2007,6422.62
Idaho,5222.91,2007,82747.21
Illinois,116525.919,2007,55583.58
Indiana,41556.387,2007,35866.9
Iowa,14771.836,2007,55869.36
Kansas,19957.28,2007,81814.88
Kentucky,37712.723,2007,39728.18
Louisiana,27878.913,2007,43561.85
Maine,7985.668,2007,30861.55
Maryland,36347.645,2007,9773.82
Massachusetts,89413.569,2007,7840.02
Michigan,73127.63,2007,56803.82
Minnesota,38705.514,2007,79610.08
Mississippi,12556.063,2007,46906.96
Missouri,38815.776,2007,68885.93
Montana,6312.743,2007,145552.43
Nebraska,11491.222,2007,76872.41
Nevada,22083.059,2007,109825.99
New Hampshire,10253.124,2007,8968.1
New Jersey,85691.516,2007,7417.34
New Mexico,12194.625,2007,121355.53
New York,259599.236,2007,47213.79
North Carolina,50213.184,2007,48710.88
North Dakota,3631.745,2007,68975.93
Ohio,66817.457,2007,40948.38
Oklahoma,16565.262,2007,68667.06
Oregon,29063.025,2007,95996.79
Pennsylvania,112446.314,2007,44816.61
Rhode Island,10459.721,2007,1044.93
South Carolina,35869.546,2007,30109.47
South Dakota,4852.839,2007,75884.64
Tennessee,33961.411,2007,41217.12
Texas,187700.694,2007,261797.12
Utah,15924.496,2007,82143.65
Vermont,4105.37,2007,9249.56
Virginia,51080.298,2007,39594.07
Washington,62107.345,2007,66544.06
West Virginia,9082.567,2007,24077.73
Wisconsin,41791.869,2007,54310.1
Wyoming,2238.851,2007,97100.4
Alabama,22310.384,2006,50744
Alaska,9449.065,2006,571951.26
Arizona,34654.849,2006,113634.57
Arkansas,11814.963,2006,52068.17
California,299534.303,2006,155959.34
Colorado,39931.671,2006,103717.53
Connecticut,32227.955,2006,4844.8
Delaware,6087.469,2006,1953.56
Florida,119674.087,2006,53926.82
Georgia,42086.356,2006,57906.14
Hawaii,9503.975,2006,6422.62
Idaho,4441.932,2006,82747.21
Illinois,110788.132,2006,55583.58
Indiana,34346.922,2006,35866.9
Iowa,13805.614,2006,55869.36
Kansas,19906.619,2006,81814.88
Kentucky,32480.177,2006,39728.18
Louisiana,24732.619,2006,43561.85
Maine,7473.265,2006,30861.55
Maryland,30673.327,2006,9773.82
Massachusetts,86940.283,2006,7840.02
Michigan,70825.25,2006,56803.82
Minnesota,36618.23,2006,79610.08
Mississippi,11161.004,2006,46906.96
Missouri,33957.144,2006,68885.93
Montana,5787.224,2006,145552.43
Nebraska,9335.704,2006,76872.41
Nevada,20581.317,2006,109825.99
New Hampshire,9951.943,2006,8968.1
New Jersey,79280.686,2006,7417.34
New Mexico,10707.401,2006,121355.53
New York,241407.354,2006,47213.79
North Carolina,43937.611,2006,48710.88
North Dakota,3486.49,2006,68975.93
Ohio,63657.638,2006,40948.38
Oklahoma,15244.309,2006,68667.06
Oregon,26918.679,2006,95996.79
Pennsylvania,106041.807,2006,44816.61
Rhode Island,8944.729,2006,1044.93
South Carolina,32158.974,2006,30109.47
South Dakota,4560.455,2006,75884.64
Tennessee,27930.502,2006,41217.12
Texas,165571.764,2006,261797.12
Utah,15326.776,2006,82143.65
Vermont,3853.686,2006,9249.56
Virginia,46387.625,2006,39594.07
Washington,56655.485,2006,66544.06
West Virginia,8937.021,2006,24077.73
Wisconsin,38833.679,2006,54310.1
Wyoming,1947.302,2006,97100.4
Alabama,22531.73,2005,50744
Alaska,8758.496,2005,571951.26
Arizona,32829.83,2005,113634.57
Arkansas,11202.611,2005,52068.17
California,285985.907,2005,155959.34
Colorado,39442.889,2005,103717.53
Connecticut,31209.042,2005,4844.8
Delaware,6236.833,2005,1953.56
Florida,113260.163,2005,53926.82
Georgia,38974.118,2005,57906.14
Hawaii,9292.14,2005,6422.62
Idaho,3978.636,2005,82747.21
Illinois,106713.844,2005,55583.58
Indiana,32124,2005,35866.9
Iowa,11649.016,2005,55869.36
Kansas,17554.092,2005,81814.88
Kentucky,30197.179,2005,39728.18
Louisiana,24761.875,2005,43561.85
Maine,6961.914,2005,30861.55
Maryland,29512.208,2005,9773.82
Massachusetts,83013.438,2005,7840.02
Michigan,68989.529,2005,56803.82
Minnesota,36262.165,2005,79610.08
Mississippi,10189.289,2005,46906.96
Missouri,31333.437,2005,68885.93
Montana,5364.613,2005,145552.43
Nebraska,8554.245,2005,76872.41
Nevada,18659.426,2005,109825.99
New Hampshire,9292.099,2005,8968.1
New Jersey,72894.132,2005,7417.34
New Mexico,10443.324,2005,121355.53
New York,232890.03,2005,47213.79
North Carolina,40906.463,2005,48710.88
North Dakota,3314.088,2005,68975.93
Ohio,60720.269,2005,40948.38
Oklahoma,14412.99,2005,68667.06
Oregon,25856.952,2005,95996.79
Pennsylvania,100473.599,2005,44816.61
Rhode Island,8698.729,2005,1044.93
South Carolina,29917.129,2005,30109.47
South Dakota,3839.762,2005,75884.64
Tennessee,25572.989,2005,41217.12
Texas,150695.429,2005,261797.12
Utah,14830.829,2005,82143.65
Vermont,3628.77,2005,9249.56
Virginia,44535.283,2005,39594.07
Washington,53049.067,2005,66544.06
West Virginia,8516.303,2005,24077.73
Wisconsin,36925.377,2005,54310.1
Wyoming,1899.32,2005,97100.4
Alabama,21629.26,2004,50744
Alaska,8583.704,2004,571951.26
Arizona,29843.532,2004,113634.57
Arkansas,10401.495,2004,52068.17
California,270427.573,2004,155959.34
Colorado,33930.433,2004,103717.53
Connecticut,30874.273,2004,4844.8
Delaware,6097.475,2004,1953.56
Florida,109900.159,2004,53926.82
Georgia,34848.073,2004,57906.14
Hawaii,9106.516,2004,6422.62
Idaho,4021.222,2004,82747.21
Illinois,102304.281,2004,55583.58
Indiana,31201.282,2004,35866.9
Iowa,11335.384,2004,55869.36
Kansas,16094.92,2004,81814.88
Kentucky,29142.748,2004,39728.18
Louisiana,22165.486,2004,43561.85
Maine,6919.496,2004,30861.55
Maryland,29437.346,2004,9773.82
Massachusetts,79080.227,2004,7840.02
Michigan,61667.289,2004,56803.82
Minnesota,33670.177,2004,79610.08
Mississippi,10292.726,2004,46906.96
Missouri,30408.267,2004,68885.93
Montana,4296.863,2004,145552.43
Nebraska,8828.872,2004,76872.41
Nevada,18089.36,2004,109825.99
New Hampshire,8768.67,2004,8968.1
New Jersey,69142.265,2004,7417.34
New Mexico,9724.371,2004,121355.53
New York,221405.713,2004,47213.79
North Carolina,37973.459,2004,48710.88
North Dakota,3148.227,2004,68975.93
Ohio,57555.049,2004,40948.38
Oklahoma,13348.676,2004,68667.06
Oregon,24753.168,2004,95996.79
Pennsylvania,96374.062,2004,44816.61
Rhode Island,8228.673,2004,1044.93
South Carolina,26660.81,2004,30109.47
South Dakota,3848.575,2004,75884.64
Tennessee,24445.04,2004,41217.12
Texas,146795.531,2004,261797.12
Utah,14265.15,2004,82143.65
Vermont,3327.135,2004,9249.56
Virginia,40086.412,2004,39594.07
Washington,50370.178,2004,66544.06
West Virginia,8103.43,2004,24077.73
Wisconsin,35348.928,2004,54310.1
Wyoming,1835.353,2004,97100.4
Alabama,19056.995,2002,50744
Alaska,8645.562,2002,571951.26
Arizona,26606.401,2002,113634.57
Arkansas,8753.923,2002,52068.17
California,209671.522,2002,155959.34
Colorado,28466.037,2002,103717.53
Connecticut,27767.247,2002,4844.8
Delaware,5532.722,2002,1953.56
Florida,90316.174,2002,53926.82
Georgia,34300.6,2002,57906.14
Hawaii,8448.272,2002,6422.62
Idaho,3985.31,2002,82747.21
Illinois,80936.138,2002,55583.58
Indiana,24070.857,2002,35866.9
Iowa,9494.328,2002,55869.36
Kansas,12450.282,2002,81814.88
Kentucky,27137.085,2002,39728.18
Louisiana,20985.667,2002,43561.85
Maine,6346.249,2002,30861.55
Maryland,25665.005,2002,9773.82
Massachusetts,65322.342,2002,7840.02
Michigan,54300.19,2002,56803.82
Minnesota,32010.125,2002,79610.08
Mississippi,9933.625,2002,46906.96
Missouri,24244.237,2002,68885.93
Montana,3962.884,2002,145552.43
Nebraska,7905.99,2002,76872.41
Nevada,15772.823,2002,109825.99
New Hampshire,7221.258,2002,8968.1
New Jersey,57590.436,2002,7417.34
New Mexico,8603.278,2002,121355.53
New York,195317.691,2002,47213.79
North Carolina,33460.541,2002,48710.88
North Dakota,2904.992,2002,68975.93
Ohio,51343.613,2002,40948.38
Oklahoma,12508.16,2002,68667.06
Oregon,18827.113,2002,95996.79
Pennsylvania,83809.049,2002,44816.61
Rhode Island,7344.889,2002,1044.93
South Carolina,22841.812,2002,30109.47
South Dakota,3450.753,2002,75884.64
Tennessee,21128.046,2002,41217.12
Texas,119225.742,2002,261797.12
Utah,13249.622,2002,82143.65
Vermont,3209.75,2002,9249.56
Virginia,35422.294,2002,39594.07
Washington,45560.55,2002,66544.06
West Virginia,8117.913,2002,24077.73
Wisconsin,30327.288,2002,54310.1
Wyoming,2387.995,2002,97100.4
Alabama,16798.576,2000,50744
Alaska,7256.519,2000,571951.26
Arizona,23598.965,2000,113634.57
Arkansas,7828.512,2000,52068.17
California,177919.62,2000,155959.34
Colorado,23199.133,2000,103717.53
Connecticut,23495.016,2000,4844.8
Delaware,4584.915,2000,1953.56
Florida,78495.159,2000,53926.82
Georgia,29948.135,2000,57906.14
Hawaii,7909.045,2000,6422.62
Idaho,3429.698,2000,82747.21
Illinois,67573.181,2000,55583.58
Indiana,19868.773,2000,35866.9
Iowa,7309.59,2000,55869.36
Kansas,10439.97,2000,81814.88
Kentucky,23420.48,2000,39728.18
Louisiana,17979.76,2000,43561.85
Maine,5845.296,2000,30861.55
Maryland,23829.59,2000,9773.82
Massachusetts,55163.476,2000,7840.02
Michigan,47195.342,2000,56803.82
Minnesota,27408.508,2000,79610.08
Mississippi,8518.722,2000,46906.96
Missouri,19285.862,2000,68885.93
Montana,3797.793,2000,145552.43
Nebraska,6647.814,2000,76872.41
Nevada,13235.447,2000,109825.99
New Hampshire,7040.746,2000,8968.1
New Jersey,50314.502,2000,7417.34
New Mexico,7652.261,2000,121355.53
New York,177549.9,2000,47213.79
North Carolina,29114.42,2000,48710.88
North Dakota,2780.54,2000,68975.93
Ohio,42086.957,2000,40948.38
Oklahoma,11408.557,2000,68667.06
Oregon,15606.989,2000,95996.79
Pennsylvania,73325.038,2000,44816.61
Rhode Island,6877.85,2000,1044.93
South Carolina,18670.657,2000,30109.47
South Dakota,3288.892,2000,75884.64
Tennessee,18376.838,2000,41217.12
Texas,100174.846,2000,261797.12
Utah,12394.278,2000,82143.65
Vermont,2838.976,2000,9249.56
Virginia,31546.081,2000,39594.07
Washington,38697.244,2000,66544.06
West Virginia,7094.022,2000,24077.73
Wisconsin,25562.783,2000,54310.1
Wyoming,2367.727,2000,97100.4
Alabama,14250.415,1999,50744
Alaska,7434.343,1999,571951.26
Arizona,22912.721,1999,113634.57
Arkansas,6936.657,1999,52068.17
California,168344.216,1999,155959.34
Colorado,22059.022,1999,103717.53
Connecticut,22237.656,1999,4844.8
Delaware,4915.536,1999,1953.56
Florida,75706.459,1999,53926.82
Georgia,26272.811,1999,57906.14
Hawaii,7651.075,1999,6422.62
Idaho,3144.123,1999,82747.21
Illinois,62897.101,1999,55583.58
Indiana,18464.357,1999,35866.9
Iowa,7156.202,1999,55869.36
Kansas,9737.246,1999,81814.88
Kentucky,22516.402,1999,39728.18
Louisiana,17316.223,1999,43561.85
Maine,5584.533,1999,30861.55
Maryland,23852.313,1999,9773.82
Massachusetts,50318.928,1999,7840.02
Michigan,44094.659,1999,56803.82
Minnesota,26864.12,1999,79610.08
Mississippi,8577.078,1999,46906.96
Missouri,17604.819,1999,68885.93
Montana,3561.343,1999,145552.43
Nebraska,6290.435,1999,76872.41
Nevada,12300.463,1999,109825.99
New Hampshire,6776.382,1999,8968.1
New Jersey,47929.532,1999,7417.34
New Mexico,7197.719,1999,121355.53
New York,171419.297,1999,47213.79
North Carolina,27400.505,1999,48710.88
North Dakota,2464.082,1999,68975.93
Ohio,36510.355,1999,40948.38
Oklahoma,11173.421,1999,68667.06
Oregon,14346.351,1999,95996.79
Pennsylvania,69464.614,1999,44816.61
Rhode Island,6619.624,1999,1044.93
South Carolina,15584.09,1999,30109.47
South Dakota,3004.42,1999,75884.64
Tennessee,17436.97,1999,41217.12
Texas,90558.337,1999,261797.12
Utah,12940.932,1999,82143.65
Vermont,2786.033,1999,9249.56
Virginia,30409.885,1999,39594.07
Washington,37198.36,1999,66544.06
West Virginia,7098.422,1999,24077.73
Wisconsin,24642.934,1999,54310.1
Wyoming,2349.92,1999,97100.4
Alabama,13224.367,1998,50744
Alaska,7448.312,1998,571951.26
Arizona,21972.197,1998,113634.57
Arkansas,6094.514,1998,52068.17
California,161486.091,1998,155959.34
Colorado,20936.361,1998,103717.53
Connecticut,22509.814,1998,4844.8
Delaware,4983.274,1998,1953.56
Florida,71809.108,1998,53926.82
Georgia,25408.806,1998,57906.14
Hawaii,7844.655,1998,6422.62
Idaho,2878.887,1998,82747.21
Illinois,58854.927,1998,55583.58
Indiana,16127.46,1998,35866.9
Iowa,6508.265,1998,55869.36
Kansas,9275.894,1998,81814.88
Kentucky,20947.428,1998,39728.18
Louisiana,16666.617,1998,43561.85
Maine,5258.42,1998,30861.55
Maryland,23324.07,1998,9773.82
Massachusetts,46319.975,1998,7840.02
Michigan,38962.582,1998,56803.82
Minnesota,26862.189,1998,79610.08
Mississippi,7565.662,1998,46906.96
Missouri,15988.762,1998,68885.93
Montana,3449.427,1998,145552.43
Nebraska,6463.131,1998,76872.41
Nevada,11290.721,1998,109825.99
New Hampshire,6605.765,1998,8968.1
New Jersey,46560.09,1998,7417.34
New Mexico,6599.582,1998,121355.53
New York,155709.646,1998,47213.79
North Carolina,25569.855,1998,48710.88
North Dakota,1948.142,1998,68975.93
Ohio,33948.521,1998,40948.38
Oklahoma,9427.989,1998,68667.06
Oregon,13391.403,1998,95996.79
Pennsylvania,61863.361,1998,44816.61
Rhode Island,6483.021,1998,1044.93
South Carolina,15145.376,1998,30109.47
South Dakota,3031.802,1998,75884.64
Tennessee,16451.488,1998,41217.12
Texas,83658.228,1998,261797.12
Utah,12848.434,1998,82143.65
Vermont,2734.337,1998,9249.56
Virginia,29023.945,1998,39594.07
Washington,35005.42,1998,66544.06
West Virginia,6917.45,1998,24077.73
Wisconsin,23174.081,1998,54310.1
Wyoming,2165.957,1998,97100.4
Alabama,12496.294,1997,50744
Alaska,7052.01,1997,571951.26
Arizona,21332.04,1997,113634.57
Arkansas,6007.21,1997,52068.17
California,155245.776,1997,155959.34
Colorado,19473.809,1997,103717.53
Connecticut,21581.072,1997,4844.8
Delaware,4745.304,1997,1953.56
Florida,70448.642,1997,53926.82
Georgia,25916.61,1997,57906.14
Hawaii,7379.221,1997,6422.62
Idaho,2642.889,1997,82747.21
Illinois,54451.725,1997,55583.58
Indiana,17062.908,1997,35866.9
Iowa,6257.508,1997,55869.36
Kansas,8826.236,1997,81814.88
Kentucky,20977.431,1997,39728.18
Louisiana,16206.856,1997,43561.85
Maine,4963.098,1997,30861.55
Maryland,22514.846,1997,9773.82
Massachusetts,41703.99,1997,7840.02
Michigan,35559.46,1997,56803.82
Minnesota,23491.377,1997,79610.08
Mississippi,6994.114,1997,46906.96
Missouri,15127.716,1997,68885.93
Montana,3270.163,1997,145552.43
Nebraska,6221.992,1997,76872.41
Nevada,10250.92,1997,109825.99
New Hampshire,7072.626,1997,8968.1
New Jersey,43775.662,1997,7417.34
New Mexico,6334.205,1997,121355.53
New York,151542.391,1997,47213.79
North Carolina,23905.829,1997,48710.88
North Dakota,1926.705,1997,68975.93
Ohio,31056.554,1997,40948.38
Oklahoma,9589.261,1997,68667.06
Oregon,13092.043,1997,95996.79
Pennsylvania,59873.639,1997,44816.61
Rhode Island,6418.8,1997,1044.93
South Carolina,14132.488,1997,30109.47
South Dakota,2674.906,1997,75884.64
Tennessee,15500.13,1997,41217.12
Texas,78826.036,1997,261797.12
Utah,11990.532,1997,82143.65
Vermont,2658.04,1997,9249.56
Virginia,27461.364,1997,39594.07
Washington,33567.903,1997,66544.06
West Virginia,6704.479,1997,24077.73
Wisconsin,21829.461,1997,54310.1
Wyoming,2100.678,1997,97100.4
Alabama,11615.191,1996,50744
Alaska,6799.083,1996,571951.26
Arizona,19210.543,1996,113634.57
Arkansas,5812.315,1996,52068.17
California,143791.233,1996,155959.34
Colorado,19253.801,1996,103717.53
Connecticut,25570.579,1996,4844.8
Delaware,5507.941,1996,1953.56
Florida,65163.736,1996,53926.82
Georgia,23701.29,1996,57906.14
Hawaii,7205.734,1996,6422.62
Idaho,2322.863,1996,82747.21
Illinois,52418.679,1996,55583.58
Indiana,15391.482,1996,35866.9
Iowa,6355.473,1996,55869.36
Kansas,8051.443,1996,81814.88
Kentucky,19401.164,1996,39728.18
Louisiana,16322.936,1996,43561.85
Maine,4681.315,1996,30861.55
Maryland,22248.559,1996,9773.82
Massachusetts,40634.729,1996,7840.02
Michigan,31610.703,1996,56803.82
Minnesota,22066.738,1996,79610.08
Mississippi,6148.879,1996,46906.96
Missouri,13872.848,1996,68885.93
Montana,2927.689,1996,145552.43
Nebraska,6221.65,1996,76872.41
Nevada,8166.138,1996,109825.99
New Hampshire,6937.365,1996,8968.1
New Jersey,41629.71,1996,7417.34
New Mexico,5427.427,1996,121355.53
New York,149700.886,1996,47213.79
North Carolina,21500.966,1996,48710.88
North Dakota,1741.632,1996,68975.93
Ohio,28954.341,1996,40948.38
Oklahoma,8966.841,1996,68667.06
Oregon,12450.404,1996,95996.79
Pennsylvania,58489.945,1996,44816.61
Rhode Island,6517.571,1996,1044.93
South Carolina,12101.595,1996,30109.47
South Dakota,2405.872,1996,75884.64
Tennessee,22489.509,1996,41217.12
Texas,75988.396,1996,261797.12
Utah,11478.912,1996,82143.65
Vermont,2256.838,1996,9249.56
Virginia,24233.043,1996,39594.07
Washington,31769.724,1996,66544.06
West Virginia,6499.271,1996,24077.73
Wisconsin,19692.26,1996,54310.1
Wyoming,1870.467,1996,97100.4
Alabama,11220.537,1995,50744
Alaska,7068.016,1995,571951.26
Arizona,18449.343,1995,113634.57
Arkansas,5115.755,1995,52068.17
California,141980.899,1995,155959.34
Colorado,18998.84,1995,103717.53
Connecticut,19427.428,1995,4844.8
Delaware,4689.854,1995,1953.56
Florida,64451.151,1995,53926.82
Georgia,22773.632,1995,57906.14
Hawaii,7184.243,1995,6422.62
Idaho,2143.263,1995,82747.21
Illinois,48802.984,1995,55583.58
Indiana,13372.915,1995,35866.9
Iowa,7370.092,1995,55869.36
Kansas,7939.175,1995,81814.88
Kentucky,19362.74,1995,39728.18
Louisiana,17314.817,1995,43561.85
Maine,4612.294,1995,30861.55
Maryland,21415.037,1995,9773.82
Massachusetts,38220.813,1995,7840.02
Michigan,30088.275,1995,56803.82
Minnesota,21688.619,1995,79610.08
Mississippi,5618.568,1995,46906.96
Missouri,13226.011,1995,68885.93
Montana,2931.945,1995,145552.43
Nebraska,6064.979,1995,76872.41
Nevada,7418.625,1995,109825.99
New Hampshire,6949.516,1995,8968.1
New Jersey,39781.043,1995,7417.34
New Mexico,4928.425,1995,121355.53
New York,142160.3,1995,47213.79
North Carolina,21991.437,1995,48710.88
North Dakota,1826.536,1995,68975.93
Ohio,28345.787,1995,40948.38
Oklahoma,8842.845,1995,68667.06
Oregon,11417.247,1995,95996.79
Pennsylvania,52833.053,1995,44816.61
Rhode Island,6308.762,1995,1044.93
South Carolina,12136.063,1995,30109.47
South Dakota,2376.438,1995,75884.64
Tennessee,21078.674,1995,41217.12
Texas,65737.561,1995,261797.12
Utah,10812.199,1995,82143.65
Vermont,2190.232,1995,9249.56
Virginia,22079.637,1995,39594.07
Washington,33420.668,1995,66544.06
West Virginia,6495.095,1995,24077.73
Wisconsin,18468.032,1995,54310.1
Wyoming,1868.923,1995,97100.4
Alabama,11293.015,1994,50744
Alaska,7379.672,1994,571951.26
Arizona,19181.097,1994,113634.57
Arkansas,4983.01,1994,52068.17
California,140938.77,1994,155959.34
Colorado,17929.988,1994,103717.53
Connecticut,17961.865,1994,4844.8
Delaware,4573.802,1994,1953.56
Florida,60467.051,1994,53926.82
Georgia,20715.61,1994,57906.14
Hawaii,7092.608,1994,6422.62
Idaho,2147.568,1994,82747.21
Illinois,46434.421,1994,55583.58
Indiana,13248.683,1994,35866.9
Iowa,5879.933,1994,55869.36
Kansas,7982.148,1994,81814.88
Kentucky,18735.792,1994,39728.18
Louisiana,16982.488,1994,43561.85
Maine,4556.549,1994,30861.55
Maryland,21062.125,1994,9773.82
Massachusetts,35898.108,1994,7840.02
Michigan,28120.582,1994,56803.82
Minnesota,21973.368,1994,79610.08
Mississippi,5794.227,1994,46906.96
Missouri,12720.875,1994,68885.93
Montana,2954.91,1994,145552.43
Nebraska,6168.03,1994,76872.41
Nevada,6648.098,1994,109825.99
New Hampshire,6693.203,1994,8968.1
New Jersey,39349.513,1994,7417.34
New Mexico,4679.289,1994,121355.53
New York,133401.756,1994,47213.79
North Carolina,20186.171,1994,48710.88
North Dakota,1720.965,1994,68975.93
Ohio,27484.785,1994,40948.38
Oklahoma,8740.164,1994,68667.06
Oregon,10983.821,1994,95996.79
Pennsylvania,55270.314,1994,44816.61
Rhode Island,6306.561,1994,1044.93
South Carolina,12156.741,1994,30109.47
South Dakota,2314.012,1994,75884.64
Tennessee,12473.576,1994,41217.12
Texas,69706.098,1994,261797.12
Utah,10594.73,1994,82143.65
Vermont,2076.44,1994,9249.56
Virginia,22039.288,1994,39594.07
Washington,28761.401,1994,66544.06
West Virginia,6321.045,1994,24077.73
Wisconsin,17352.654,1994,54310.1
Wyoming,1786.104,1994,97100.4
Alabama,11437.722,1993,50744
Alaska,8258.322,1993,571951.26
Arizona,18699.475,1993,113634.57
Arkansas,4969.455,1993,52068.17
California,122890.376,1993,155959.34
Colorado,14404.356,1993,103717.53
Connecticut,16824.14,1993,4844.8
Delaware,4726.072,1993,1953.56
Florida,59078.059,1993,53926.82
Georgia,20101.748,1993,57906.14
Hawaii,6747.184,1993,6422.62
Idaho,2011.477,1993,82747.21
Illinois,43836.569,1993,55583.58
Indiana,12823.957,1993,35866.9
Iowa,5790.268,1993,55869.36
Kansas,7968.815,1993,81814.88
Kentucky,17345.807,1993,39728.18
Louisiana,17845.103,1993,43561.85
Maine,4505.297,1993,30861.55
Maryland,20060.871,1993,9773.82
Massachusetts,34475.119,1993,7840.02
Michigan,27317.579,1993,56803.82
Minnesota,21109.693,1993,79610.08
Mississippi,5182.427,1993,46906.96
Missouri,12119.116,1993,68885.93
Montana,2683.223,1993,145552.43
Nebraska,6177.774,1993,76872.41
Nevada,6552.525,1993,109825.99
New Hampshire,6258.316,1993,8968.1
New Jersey,37483.745,1993,7417.34
New Mexico,4497.06,1993,121355.53
New York,122618.161,1993,47213.79
North Carolina,18605.285,1993,48710.88
North Dakota,1781.276,1993,68975.93
Ohio,26699.834,1993,40948.38
Oklahoma,8834.399,1993,68667.06
Oregon,10737.779,1993,95996.79
Pennsylvania,50992.305,1993,44816.61
Rhode Island,5691.961,1993,1044.93
South Carolina,11074.647,1993,30109.47
South Dakota,2406.704,1993,75884.64
Tennessee,12514.578,1993,41217.12
Texas,68488.774,1993,261797.12
Utah,10595.931,1993,82143.65
Vermont,1917.291,1993,9249.56
Virginia,20607.659,1993,39594.07
Washington,29941.53,1993,66544.06
West Virginia,6376.75,1993,24077.73
Wisconsin,16641.892,1993,54310.1
Wyoming,1898.164,1993,97100.4
Alabama,10975.536,1992,50744
Alaska,9910.539,1992,571951.26
Arizona,19110.038,1992,113634.57
Arkansas,5311.537,1992,52068.17
California,114175.508,1992,155959.34
Colorado,16295.018,1992,103717.53
Connecticut,15756.216,1992,4844.8
Delaware,4557.811,1992,1953.56
Florida,55277.985,1992,53926.82
Georgia,20717.632,1992,57906.14
Hawaii,6048.364,1992,6422.62
Idaho,1942.951,1992,82747.21
Illinois,40621.141,1992,55583.58
Indiana,12723.851,1992,35866.9
Iowa,5516.052,1992,55869.36
Kansas,7807.183,1992,81814.88
Kentucky,15893.833,1992,39728.18
Louisiana,18853.993,1992,43561.85
Maine,4113.057,1992,30861.55
Maryland,19055.256,1992,9773.82
Massachusetts,32898.233,1992,7840.02
Michigan,24339.18,1992,56803.82
Minnesota,19972.119,1992,79610.08
Mississippi,5206.146,1992,46906.96
Missouri,12040.868,1992,68885.93
Montana,3736.237,1992,145552.43
Nebraska,5352.318,1992,76872.41
Nevada,5789.499,1992,109825.99
New Hampshire,5807.916,1992,8968.1
New Jersey,34943.641,1992,7417.34
New Mexico,4735.272,1992,121355.53
New York,116085.659,1992,47213.79
North Carolina,17863.452,1992,48710.88
North Dakota,1977.031,1992,68975.93
Ohio,25984.056,1992,40948.38
Oklahoma,8976.568,1992,68667.06
Oregon,10545.123,1992,95996.79
Pennsylvania,48080.008,1992,44816.61
Rhode Island,5954.09,1992,1044.93
South Carolina,11323.368,1992,30109.47
South Dakota,2427.995,1992,75884.64
Tennessee,12430.068,1992,41217.12
Texas,65364.097,1992,261797.12
Utah,10432.585,1992,82143.65
Vermont,2021.718,1992,9249.56
Virginia,20233.125,1992,39594.07
Washington,28021.76,1992,66544.06
West Virginia,6351.592,1992,24077.73
Wisconsin,15037.01,1992,54310.1
Wyoming,2076.558,1992,97100.4
Alabama,10785.718,1991,50744
Alaska,10059.234,1991,571951.26
Arizona,18504.474,1991,113634.57
Arkansas,4838.057,1991,52068.17
California,98081.027,1991,155959.34
Colorado,13871.238,1991,103717.53
Connecticut,16526.838,1991,4844.8
Delaware,4199.149,1991,1953.56
Florida,52543.197,1991,53926.82
Georgia,18765.913,1991,57906.14
Hawaii,5332.167,1991,6422.62
Idaho,1730.302,1991,82747.21
Illinois,37913.709,1991,55583.58
Indiana,11207.87,1991,35866.9
Iowa,5106.318,1991,55869.36
Kansas,7225.198,1991,81814.88
Kentucky,14362.362,1991,39728.18
Louisiana,19399.528,1991,43561.85
Maine,4053.451,1991,30861.55
Maryland,17516.845,1991,9773.82
Massachusetts,29570.052,1991,7840.02
Michigan,23416.786,1991,56803.82
Minnesota,18904.589,1991,79610.08
Mississippi,4868.419,1991,46906.96
Missouri,11121.901,1991,68885.93
Montana,2381.407,1991,145552.43
Nebraska,6337.274,1991,76872.41
Nevada,6223.017,1991,109825.99
New Hampshire,5239.54,1991,8968.1
New Jersey,33716.007,1991,7417.34
New Mexico,4940.706,1991,121355.53
New York,107264.47,1991,47213.79
North Carolina,16660.638,1991,48710.88
North Dakota,1925.522,1991,68975.93
Ohio,25744.796,1991,40948.38
Oklahoma,8677.887,1991,68667.06
Oregon,10231.216,1991,95996.79
Pennsylvania,48137.442,1991,44816.61
Rhode Island,5207.444,1991,1044.93
South Carolina,10310.995,1991,30109.47
South Dakota,2272.479,1991,75884.64
Tennessee,12210.761,1991,41217.12
Texas,64865.439,1991,261797.12
Utah,10148.371,1991,82143.65
Vermont,1936.268,1991,9249.56
Virginia,18132.467,1991,39594.07
Washington,26158.274,1991,66544.06
West Virginia,6560.395,1991,24077.73
Wisconsin,13553.926,1991,54310.1
Wyoming,2117.162,1991,97100.4
Alabama,10221.077,1990,50744
Alaska,10368.654,1990,571951.26
Arizona,17565.654,1990,113634.57
Arkansas,4612.227,1990,52068.17
California,93358.157,1990,155959.34
Colorado,13353.737,1990,103717.53
Connecticut,14391.744,1990,4844.8
Delaware,3959.77,1990,1953.56
Florida,53463.746,1990,53926.82
Georgia,17396.934,1990,57906.14
Hawaii,4428.745,1990,6422.62
Idaho,1527.864,1990,82747.21
Illinois,32026.755,1990,55583.58
Indiana,10883.342,1990,35866.9
Iowa,5456.439,1990,55869.36
Kansas,6960.781,1990,81814.88
Kentucky,13321.422,1990,39728.18
Louisiana,21560.222,1990,43561.85
Maine,3397.742,1990,30861.55
Maryland,16288.012,1990,9773.82
Massachusetts,26976.489,1990,7840.02
Michigan,21414.324,1990,56803.82
Minnesota,17350.894,1990,79610.08
Mississippi,4768.763,1990,46906.96
Missouri,10110.179,1990,68885.93
Montana,2554.253,1990,145552.43
Nebraska,6189.63,1990,76872.41
Nevada,4352.294,1990,109825.99
New Hampshire,4332.747,1990,8968.1
New Jersey,32564.704,1990,7417.34
New Mexico,4992.834,1990,121355.53
New York,94538.076,1990,47213.79
North Carolina,15722.911,1990,48710.88
North Dakota,1856.381,1990,68975.93
Ohio,23191.263,1990,40948.38
Oklahoma,8232.772,1990,68667.06
Oregon,10120.232,1990,95996.79
Pennsylvania,45728.21,1990,44816.61
Rhode Island,4334.744,1990,1044.93
South Carolina,9722.52,1990,30109.47
South Dakota,2274.06,1990,75884.64
Tennessee,11811.523,1990,41217.12
Texas,64127.092,1990,261797.12
Utah,10009.728,1990,82143.65
Vermont,1685.503,1990,9249.56
Virginia,15801.509,1990,39594.07
Washington,23639.561,1990,66544.06
West Virginia,6292.157,1990,24077.73
Wisconsin,12090.19,1990,54310.1
Wyoming,2257.258,1990,97100.4
Alabama,9882.017,1989,50744
Alaska,10479.429,1989,571951.26
Arizona,16879.348,1989,113634.57
Arkansas,4660.815,1989,52068.17
California,82180.904,1989,155959.34
Colorado,12268.418,1989,103717.53
Connecticut,12766.7,1989,4844.8
Delaware,3747.749,1989,1953.56
Florida,48090.233,1989,53926.82
Georgia,17140.379,1989,57906.14
Hawaii,3856.972,1989,6422.62
Idaho,1371.841,1989,82747.21
Illinois,29791.51,1989,55583.58
Indiana,9648.632,1989,35866.9
Iowa,5065.026,1989,55869.36
Kansas,6950.524,1989,81814.88
Kentucky,13040.495,1989,39728.18
Louisiana,20910.181,1989,43561.85
Maine,3240.64,1989,30861.55
Maryland,14781.86,1989,9773.82
Massachusetts,23960.328,1989,7840.02
Michigan,19971.842,1989,56803.82
Minnesota,17689.958,1989,79610.08
Mississippi,4898.593,1989,46906.96
Missouri,9759.131,1989,68885.93
Montana,2481.582,1989,145552.43
Nebraska,6053.125,1989,76872.41
Nevada,4198.313,1989,109825.99
New Hampshire,3781.13,1989,8968.1
New Jersey,30947.505,1989,7417.34
New Mexico,5020.312,1989,121355.53
New York,87003.598,1989,47213.79
North Carolina,14944.547,1989,48710.88
North Dakota,1910.943,1989,68975.93
Ohio,22115.127,1989,40948.38
Oklahoma,8033.694,1989,68667.06
Oregon,10224.409,1989,95996.79
Pennsylvania,40240.859,1989,44816.61
Rhode Island,4033.838,1989,1044.93
South Carolina,9318.068,1989,30109.47
South Dakota,2331.592,1989,75884.64
Tennessee,11712.334,1989,41217.12
Texas,60976.504,1989,261797.12
Utah,9757.319,1989,82143.65
Vermont,1510.239,1989,9249.56
Virginia,14147.328,1989,39594.07
Washington,22001.348,1989,66544.06
West Virginia,5585.013,1989,24077.73
Wisconsin,11334.619,1989,54310.1
Wyoming,2338.825,1989,97100.4
Alabama,9040.206,1988,50744
Alaska,10925.313,1988,571951.26
Arizona,18697.792,1988,113634.57
Arkansas,4362.842,1988,52068.17
California,76536.705,1988,155959.34
Colorado,11974.611,1988,103717.53
Connecticut,11116.6,1988,4844.8
Delaware,3748.985,1988,1953.56
Florida,43262.216,1988,53926.82
Georgia,15600.362,1988,57906.14
Hawaii,3590.568,1988,6422.62
Idaho,1207.319,1988,82747.21
Illinois,28144.744,1988,55583.58
Indiana,8086.426,1988,35866.9
Iowa,4701.126,1988,55869.36
Kansas,7090.288,1988,81814.88
Kentucky,12926.535,1988,39728.18
Louisiana,19855.785,1988,43561.85
Maine,2740.035,1988,30861.55
Maryland,14431.477,1988,9773.82
Massachusetts,20793.274,1988,7840.02
Michigan,19604.752,1988,56803.82
Minnesota,17805.776,1988,79610.08
Mississippi,4730.505,1988,46906.96
Missouri,9165.135,1988,68885.93
Montana,2288.632,1988,145552.43
Nebraska,6156.849,1988,76872.41
Nevada,3831.173,1988,109825.99
New Hampshire,3453.617,1988,8968.1
New Jersey,30116.408,1988,7417.34
New Mexico,5236.631,1988,121355.53
New York,80377.963,1988,47213.79
North Carolina,14032.213,1988,48710.88
North Dakota,1633.008,1988,68975.93
Ohio,20342.344,1988,40948.38
Oklahoma,8006.956,1988,68667.06
Oregon,10487.273,1988,95996.79
Pennsylvania,39422.501,1988,44816.61
Rhode Island,3541.372,1988,1044.93
South Carolina,8892.673,1988,30109.47
South Dakota,1988.495,1988,75884.64
Tennessee,11177.544,1988,41217.12
Texas,59319.902,1988,261797.12
Utah,9292.978,1988,82143.65
Vermont,1317.265,1988,9249.56
Virginia,12014.897,1988,39594.07
Washington,20303.514,1988,66544.06
West Virginia,5427.381,1988,24077.73
Wisconsin,10196.635,1988,54310.1
Wyoming,2197.838,1988,97100.4
Alabama,8382.244,1987,50744
Alaska,11221.935,1987,571951.26
Arizona,15050.547,1987,113634.57
Arkansas,4259.576,1987,52068.17
California,76767.202,1987,155959.34
Colorado,11594.045,1987,103717.53
Connecticut,10829.491,1987,4844.8
Delaware,3815.893,1987,1953.56
Florida,40905.571,1987,53926.82
Georgia,14789.998,1987,57906.14
Hawaii,3503.502,1987,6422.62
Idaho,1177.306,1987,82747.21
Illinois,26980.706,1987,55583.58
Indiana,7982.05,1987,35866.9
Iowa,4915.423,1987,55869.36
Kansas,6792.334,1987,81814.88
Kentucky,12501.906,1987,39728.18
Louisiana,18354.851,1987,43561.85
Maine,2642.863,1987,30861.55
Maryland,13857.463,1987,9773.82
Massachusetts,19255.268,1987,7840.02
Michigan,18529.734,1987,56803.82
Minnesota,17351.873,1987,79610.08
Mississippi,5456.623,1987,46906.96
Missouri,8836.45,1987,68885.93
Montana,2220.282,1987,145552.43
Nebraska,6172.292,1987,76872.41
Nevada,3397.986,1987,109825.99
New Hampshire,3069.564,1987,8968.1
New Jersey,29418.082,1987,7417.34
New Mexico,5305.541,1987,121355.53
New York,77496.521,1987,47213.79
North Carolina,13753.275,1987,48710.88
North Dakota,1636.62,1987,68975.93
Ohio,19260.536,1987,40948.38
Oklahoma,8346.957,1987,68667.06
Oregon,10886.424,1987,95996.79
Pennsylvania,36679.576,1987,44816.61
Rhode Island,3409.564,1987,1044.93
South Carolina,8957.755,1987,30109.47
South Dakota,1973.089,1987,75884.64
Tennessee,11078.112,1987,41217.12
Texas,55672.567,1987,261797.12
Utah,9302.676,1987,82143.65
Vermont,1317.395,1987,9249.56
Virginia,11133.818,1987,39594.07
Washington,19955.48,1987,66544.06
West Virginia,5213.298,1987,24077.73
Wisconsin,9857.025,1987,54310.1
Wyoming,2151.626,1987,97100.4
Alabama,8962.151,1986,50744
Alaska,11865.912,1986,571951.26
Arizona,13802.479,1986,113634.57
Arkansas,3780.658,1986,52068.17
California,65097.604,1986,155959.34
Colorado,9638.508,1986,103717.53
Connecticut,9857.386,1986,4844.8
Delaware,3552.558,1986,1953.56
Florida,31657.604,1986,53926.82
Georgia,12446.735,1986,57906.14
Hawaii,3400.229,1986,6422.62
Idaho,1244.944,1986,82747.21
Illinois,25635.101,1986,55583.58
Indiana,7251.271,1986,35866.9
Iowa,4593.836,1986,55869.36
Kansas,5669.822,1986,81814.88
Kentucky,11386.212,1986,39728.18
Louisiana,18696.464,1986,43561.85
Maine,2389.198,1986,30861.55
Maryland,13823.042,1986,9773.82
Massachusetts,17786.995,1986,7840.02
Michigan,17804.69,1986,56803.82
Minnesota,16427.978,1986,79610.08
Mississippi,3521.275,1986,46906.96
Missouri,7701.348,1986,68885.93
Montana,2396.911,1986,145552.43
Nebraska,6241.364,1986,76872.41
Nevada,3039.135,1986,109825.99
New Hampshire,2912.44,1986,8968.1
New Jersey,26815.098,1986,7417.34
New Mexico,4950.784,1986,121355.53
New York,70880.691,1986,47213.79
North Carolina,12859.863,1986,48710.88
North Dakota,1488.156,1986,68975.93
Ohio,18011.65,1986,40948.38
Oklahoma,8310.922,1986,68667.06
Oregon,10439.063,1986,95996.79
Pennsylvania,31350.682,1986,44816.61
Rhode Island,3560.385,1986,1044.93
South Carolina,8639.278,1986,30109.47
South Dakota,1688.716,1986,75884.64
Tennessee,9797.073,1986,41217.12
Texas,47704.397,1986,261797.12
Utah,8770.401,1986,82143.65
Vermont,1372.558,1986,9249.56
Virginia,10152.729,1986,39594.07
Washington,18984.818,1986,66544.06
West Virginia,5012.05,1986,24077.73
Wisconsin,9487.49,1986,54310.1
Wyoming,2318.081,1986,97100.4
Alabama,7739.838,1985,50744
Alaska,9880.693,1985,571951.26
Arizona,11819.349,1985,113634.57
Arkansas,3283.377,1985,52068.17
California,50360.756,1985,155959.34
Colorado,8958.88,1985,103717.53
Connecticut,8734.599,1985,4844.8
Delaware,2581.814,1985,1953.56
Florida,26071.102,1985,53926.82
Georgia,11250.903,1985,57906.14
Hawaii,3054.959,1985,6422.62
Idaho,1146.805,1985,82747.21
Illinois,21709.074,1985,55583.58
Indiana,7146.394,1985,35866.9
Iowa,4076.596,1985,55869.36
Kansas,5993.963,1985,81814.88
Kentucky,10364.558,1985,39728.18
Louisiana,15312.64,1985,43561.85
Maine,1963.25,1985,30861.55
Maryland,12306.564,1985,9773.82
Massachusetts,15439.234,1985,7840.02
Michigan,15214.237,1985,56803.82
Minnesota,13959.246,1985,79610.08
Mississippi,3248.115,1985,46906.96
Missouri,7249.393,1985,68885.93
Montana,1883.769,1985,145552.43
Nebraska,5958.471,1985,76872.41
Nevada,2801.843,1985,109825.99
New Hampshire,2484.613,1985,8968.1
New Jersey,22629.293,1985,7417.34
New Mexico,3954.181,1985,121355.53
New York,62454.245,1985,47213.79
North Carolina,10011.598,1985,48710.88
North Dakota,1299.409,1985,68975.93
Ohio,16641.78,1985,40948.38
Oklahoma,7410.518,1985,68667.06
Oregon,9862.852,1985,95996.79
Pennsylvania,25196.506,1985,44816.61
Rhode Island,3443.365,1985,1044.93
South Carolina,6748.052,1985,30109.47
South Dakota,1584.406,1985,75884.64
Tennessee,8267.14,1985,41217.12
Texas,42388.083,1985,261797.12
Utah,7923.891,1985,82143.65
Vermont,1239.118,1985,9249.56
Virginia,8759.884,1985,39594.07
Washington,17872.645,1985,66544.06
West Virginia,4401.811,1985,24077.73
Wisconsin,8821.735,1985,54310.1
Wyoming,2291.023,1985,97100.4
Alabama,7050.576,1984,50744
Alaska,9687.422,1984,571951.26
Arizona,10173.894,1984,113634.57
Arkansas,3018.168,1984,52068.17
California,39317.198,1984,155959.34
Colorado,7433.361,1984,103717.53
Connecticut,7932.216,1984,4844.8
Delaware,2526.821,1984,1953.56
Florida,21226.504,1984,53926.82
Georgia,9522.681,1984,57906.14
Hawaii,2862.428,1984,6422.62
Idaho,1089.233,1984,82747.21
Illinois,19782.074,1984,55583.58
Indiana,6443.117,1984,35866.9
Iowa,3135.846,1984,55869.36
Kansas,5560.277,1984,81814.88
Kentucky,9640.389,1984,39728.18
Louisiana,13729.76,1984,43561.85
Maine,1910.117,1984,30861.55
Maryland,11574.308,1984,9773.82
Massachusetts,14035.139,1984,7840.02
Michigan,14653.252,1984,56803.82
Minnesota,12210.22,1984,79610.08
Mississippi,3105.597,1984,46906.96
Missouri,6295.365,1984,68885.93
Montana,1779.213,1984,145552.43
Nebraska,5444.753,1984,76872.41
Nevada,2318.454,1984,109825.99
New Hampshire,2220.224,1984,8968.1
New Jersey,19674.703,1984,7417.34
New Mexico,3773.551,1984,121355.53
New York,57032.177,1984,47213.79
North Carolina,9100.895,1984,48710.88
North Dakota,1156.267,1984,68975.93
Ohio,15159.461,1984,40948.38
Oklahoma,7149.289,1984,68667.06
Oregon,9403.24,1984,95996.79
Pennsylvania,24158.489,1984,44816.61
Rhode Island,2923.526,1984,1044.93
South Carolina,5804.672,1984,30109.47
South Dakota,1409.425,1984,75884.64
Tennessee,7292.145,1984,41217.12
Texas,36120.933,1984,261797.12
Utah,7160.616,1984,82143.65
Vermont,1140.906,1984,9249.56
Virginia,7660.666,1984,39594.07
Washington,17833.514,1984,66544.06
West Virginia,4109.055,1984,24077.73
Wisconsin,7483.482,1984,54310.1
Wyoming,1987.481,1984,97100.4
Alabama,6023.47,1983,50744
Alaska,8453.711,1983,571951.26
Arizona,7672.97,1983,113634.57
Arkansas,3186.028,1983,52068.17
California,33848.68,1983,155959.34
Colorado,6665.211,1983,103717.53
Connecticut,7456.703,1983,4844.8
Delaware,2302.569,1983,1953.56
Florida,15173.16,1983,53926.82
Georgia,8556.418,1983,57906.14
Hawaii,2656.013,1983,6422.62
Idaho,987.016,1983,82747.21
Illinois,18679.421,1983,55583.58
Indiana,5302.459,1983,35866.9
Iowa,2982.79,1983,55869.36
Kansas,5625.582,1983,81814.88
Kentucky,9375.292,1983,39728.18
Louisiana,11762.647,1983,43561.85
Maine,1747.882,1983,30861.55
Maryland,10657.663,1983,9773.82
Massachusetts,13113.756,1983,7840.02
Michigan,13865.497,1983,56803.82
Minnesota,11626.603,1983,79610.08
Mississippi,2653.421,1983,46906.96
Missouri,5761.14,1983,68885.93
Montana,1476.917,1983,145552.43
Nebraska,5269.994,1983,76872.41
Nevada,2021.006,1983,109825.99
New Hampshire,1962.399,1983,8968.1
New Jersey,17838.869,1983,7417.34
New Mexico,3495.552,1983,121355.53
New York,54239.512,1983,47213.79
North Carolina,7946.481,1983,48710.88
North Dakota,1041.63,1983,68975.93
Ohio,13953.61,1983,40948.38
Oklahoma,5136.935,1983,68667.06
Oregon,9421.94,1983,95996.79
Pennsylvania,21347.552,1983,44816.61
Rhode Island,2796.597,1983,1044.93
South Carolina,5359.901,1983,30109.47
South Dakota,1333.371,1983,75884.64
Tennessee,7508.034,1983,41217.12
Texas,30168.539,1983,261797.12
Utah,5173.782,1983,82143.65
Vermont,1051.631,1983,9249.56
Virginia,7350.37,1983,39594.07
Washington,16952.839,1983,66544.06
West Virginia,3861.59,1983,24077.73
Wisconsin,6871.19,1983,54310.1
Wyoming,1789.023,1983,97100.4
Alabama,5720.776,1982,50744
Alaska,6840.59,1982,571951.26
Arizona,7310.292,1982,113634.57
Arkansas,2458.479,1982,52068.17
California,29350.543,1982,155959.34
Colorado,5420.781,1982,103717.53
Connecticut,6785.345,1982,4844.8
Delaware,2014.765,1982,1953.56
Florida,14112.556,1982,53926.82
Georgia,7550.782,1982,57906.14
Hawaii,2447.176,1982,6422.62
Idaho,968.579,1982,82747.21
Illinois,17318.562,1982,55583.58
Indiana,4542.262,1982,35866.9
Iowa,2833.315,1982,55869.36
Kansas,4940.37,1982,81814.88
Kentucky,7669.126,1982,39728.18
Louisiana,9545.52,1982,43561.85
Maine,1571.059,1982,30861.55
Maryland,9375.112,1982,9773.82
Massachusetts,11146.96,1982,7840.02
Michigan,13125.251,1982,56803.82
Minnesota,9389.518,1982,79610.08
Mississippi,2288.521,1982,46906.96
Missouri,4913.189,1982,68885.93
Montana,1017.177,1982,145552.43
Nebraska,5189.193,1982,76872.41
Nevada,1588.303,1982,109825.99
New Hampshire,1734.046,1982,8968.1
New Jersey,16101.667,1982,7417.34
New Mexico,3020.614,1982,121355.53
New York,49361.347,1982,47213.79
North Carolina,5988.644,1982,48710.88
North Dakota,935.155,1982,68975.93
Ohio,12300.55,1982,40948.38
Oklahoma,5252.651,1982,68667.06
Oregon,8770.951,1982,95996.79
Pennsylvania,20803.709,1982,44816.61
Rhode Island,2576.824,1982,1044.93
South Carolina,4984.261,1982,30109.47
South Dakota,1229.378,1982,75884.64
Tennessee,6782.106,1982,41217.12
Texas,24748.385,1982,261797.12
Utah,3639.076,1982,82143.65
Vermont,950.059,1982,9249.56
Virginia,7018.93,1982,39594.07
Washington,16637.622,1982,66544.06
West Virginia,3756.824,1982,24077.73
Wisconsin,5972.299,1982,54310.1
Wyoming,1746.846,1982,97100.4
Alabama,4604.588,1981,50744
Alaska,5224.486,1981,571951.26
Arizona,5345.669,1981,113634.57
Arkansas,2327.217,1981,52068.17
California,26258.937,1981,155959.34
Colorado,4452.126,1981,103717.53
Connecticut,6417.373,1981,4844.8
Delaware,1751.441,1981,1953.56
Florida,12570.047,1981,53926.82
Georgia,6877.096,1981,57906.14
Hawaii,2145.294,1981,6422.62
Idaho,784.178,1981,82747.21
Illinois,16502.061,1981,55583.58
Indiana,4378.519,1981,35866.9
Iowa,2393.151,1981,55869.36
Kansas,3982.292,1981,81814.88
Kentucky,7474.493,1981,39728.18
Louisiana,8665.451,1981,43561.85
Maine,1444.624,1981,30861.55
Maryland,8456.63,1981,9773.82
Massachusetts,10743.326,1981,7840.02
Michigan,11715.299,1981,56803.82
Minnesota,7915.954,1981,79610.08
Mississippi,2161.555,1981,46906.96
Missouri,4555.091,1981,68885.93
Montana,1194.291,1981,145552.43
Nebraska,4739.358,1981,76872.41
Nevada,1398.783,1981,109825.99
New Hampshire,1479.978,1981,8968.1
New Jersey,14212.606,1981,7417.34
New Mexico,2693.836,1981,121355.53
New York,47185.235,1981,47213.79
North Carolina,4999.173,1981,48710.88
North Dakota,817.625,1981,68975.93
Ohio,11268.146,1981,40948.38
Oklahoma,3861.191,1981,68667.06
Oregon,8347.155,1981,95996.79
Pennsylvania,19437.006,1981,44816.61
Rhode Island,2300.298,1981,1044.93
South Carolina,4081.605,1981,30109.47
South Dakota,1129.515,1981,75884.64
Tennessee,6532.936,1981,41217.12
Texas,22516.173,1981,261797.12
Utah,2170.982,1981,82143.65
Vermont,853.759,1981,9249.56
Virginia,6251.231,1981,39594.07
Washington,13241.872,1981,66544.06
West Virginia,3700.208,1981,24077.73
Wisconsin,6107.215,1981,54310.1
Wyoming,1521.587,1981,97100.4
Alabama,4081.161,1980,50744
Alaska,4039.213,1980,571951.26
Arizona,4752.199,1980,113634.57
Arkansas,2017.177,1980,52068.17
California,24209.405,1980,155959.34
Colorado,3801.242,1980,103717.53
Connecticut,5787.329,1980,4844.8
Delaware,1621.846,1980,1953.56
Florida,10473.822,1980,53926.82
Georgia,6204.805,1980,57906.14
Hawaii,2181.142,1980,6422.62
Idaho,672.442,1980,82747.21
Illinois,15282.89,1980,55583.58
Indiana,3924.785,1980,35866.9
Iowa,2294.921,1980,55869.36
Kansas,3276.623,1980,81814.88
Kentucky,7421.838,1980,39728.18
Louisiana,7088.882,1980,43561.85
Maine,1339.239,1980,30861.55
Maryland,7500.568,1980,9773.82
Massachusetts,10237.146,1980,7840.02
Michigan,11117.665,1980,56803.82
Minnesota,8680.446,1980,79610.08
Mississippi,2130.847,1980,46906.96
Missouri,4229.476,1980,68885.93
Montana,852.708,1980,145552.43
Nebraska,4604.299,1980,76872.41
Nevada,1314.685,1980,109825.99
New Hampshire,1294.744,1980,8968.1
New Jersey,12617.426,1980,7417.34
New Mexico,1892.54,1980,121355.53
New York,46496.293,1980,47213.79
North Carolina,4416.909,1980,48710.88
North Dakota,825.794,1980,68975.93
Ohio,10481.419,1980,40948.38
Oklahoma,3374.14,1980,68667.06
Oregon,7026.02,1980,95996.79
Pennsylvania,20392.588,1980,44816.61
Rhode Island,2028.935,1980,1044.93
South Carolina,3347.7,1980,30109.47
South Dakota,1133.635,1980,75884.64
Tennessee,6039.863,1980,41217.12
Texas,20660.073,1980,261797.12
Utah,1414.429,1980,82143.65
Vermont,788.903,1980,9249.56
Virginia,5863.357,1980,39594.07
Washington,11624.715,1980,66544.06
West Virginia,3247.105,1980,24077.73
Wisconsin,5673.22,1980,54310.1
Wyoming,1166.553,1980,97100.4
Alabama,3948.665,1979,50744
Alaska,3718.019,1979,571951.26
Arizona,3394.405,1979,113634.57
Arkansas,1366.19,1979,52068.17
California,22340.083,1979,155959.34
Colorado,3000.332,1979,103717.53
Connecticut,5495.976,1979,4844.8
Delaware,1297.605,1979,1953.56
Florida,9815.357,1979,53926.82
Georgia,5733.884,1979,57906.14
Hawaii,2033.153,1979,6422.62
Idaho,504.263,1979,82747.21
Illinois,13570.409,1979,55583.58
Indiana,3527.756,1979,35866.9
Iowa,1891.962,1979,55869.36
Kansas,2619.61,1979,81814.88
Kentucky,6828.224,1979,39728.18
Louisiana,6026.748,1979,43561.85
Maine,1254.987,1979,30861.55
Maryland,7337.062,1979,9773.82
Massachusetts,9791.947,1979,7840.02
Michigan,10172.119,1979,56803.82
Minnesota,6322.856,1979,79610.08
Mississippi,2021.248,1979,46906.96
Missouri,3394.985,1979,68885.93
Montana,692.189,1979,145552.43
Nebraska,4288.763,1979,76872.41
Nevada,1022.811,1979,109825.99
New Hampshire,1127.209,1979,8968.1
New Jersey,11210.5,1979,7417.34
New Mexico,1616.122,1979,121355.53
New York,46687.098,1979,47213.79
North Carolina,3503.687,1979,48710.88
North Dakota,609.822,1979,68975.93
Ohio,9846.212,1979,40948.38
Oklahoma,3115.213,1979,68667.06
Oregon,5652.219,1979,95996.79
Pennsylvania,19845.04,1979,44816.61
Rhode Island,1680.777,1979,1044.93
South Carolina,2931.775,1979,30109.47
South Dakota,867.278,1979,75884.64
Tennessee,5131.351,1979,41217.12
Texas,17688.876,1979,261797.12
Utah,1197.703,1979,82143.65
Vermont,649.575,1979,9249.56
Virginia,5318.959,1979,39594.07
Washington,10549.014,1979,66544.06
West Virginia,2817.267,1979,24077.73
Wisconsin,5188.852,1979,54310.1
Wyoming,785.446,1979,97100.4
Alabama,3714.073,1978,50744
Alaska,3193.8,1978,571951.26
Arizona,3469.238,1978,113634.57
Arkansas,1301.243,1978,52068.17
California,20585,1978,155959.34
Colorado,2541.063,1978,103717.53
Connecticut,5195.998,1978,4844.8
Delaware,1164.856,1978,1953.56
Florida,9292.474,1978,53926.82
Georgia,5236.383,1978,57906.14
Hawaii,2089.694,1978,6422.62
Idaho,356.934,1978,82747.21
Illinois,12848.897,1978,55583.58
Indiana,3086.885,1978,35866.9
Iowa,1531.624,1978,55869.36
Kansas,2918.711,1978,81814.88
Kentucky,5293.814,1978,39728.18
Louisiana,5238.97,1978,43561.85
Maine,1220.983,1978,30861.55
Maryland,7353.552,1978,9773.82
Massachusetts,8894.373,1978,7840.02
Michigan,9345.686,1978,56803.82
Minnesota,5520.215,1978,79610.08
Mississippi,2337.314,1978,46906.96
Missouri,3261.54,1978,68885.93
Montana,619.236,1978,145552.43
Nebraska,3746.312,1978,76872.41
Nevada,889.455,1978,109825.99
New Hampshire,794.837,1978,8968.1
New Jersey,9938.587,1978,7417.34
New Mexico,1294.082,1978,121355.53
New York,48600.075,1978,47213.79
North Carolina,2737.145,1978,48710.88
North Dakota,660.64,1978,68975.93
Ohio,9323.412,1978,40948.38
Oklahoma,2583.104,1978,68667.06
Oregon,4839.184,1978,95996.79
Pennsylvania,16218.711,1978,44816.61
Rhode Island,1371.431,1978,1044.93
South Carolina,3160.188,1978,30109.47
South Dakota,646.876,1978,75884.64
Tennessee,5273.406,1978,41217.12
Texas,15364.296,1978,261797.12
Utah,913.242,1978,82143.65
Vermont,642.859,1978,9249.56
Virginia,4463.768,1978,39594.07
Washington,9808.273,1978,66544.06
West Virginia,2015.522,1978,24077.73
Wisconsin,4348.901,1978,54310.1
Wyoming,607.968,1978,97100.4
Alabama,3268.436,1977,50744
Alaska,2295.083,1977,571951.26
Arizona,2935.891,1977,113634.57
Arkansas,1159.176,1977,52068.17
California,20982.638,1977,155959.34
Colorado,2348.384,1977,103717.53
Connecticut,5097.134,1977,4844.8
Delaware,1155.868,1977,1953.56
Florida,8014.091,1977,53926.82
Georgia,4608.139,1977,57906.14
Hawaii,1811.811,1977,6422.62
Idaho,304.467,1977,82747.21
Illinois,11738.532,1977,55583.58
Indiana,2850,1977,35866.9
Iowa,1509.788,1977,55869.36
Kansas,2180.922,1977,81814.88
Kentucky,4776.27,1977,39728.18
Louisiana,4627.38,1977,43561.85
Maine,1056.223,1977,30861.55
Maryland,6345.631,1977,9773.82
Massachusetts,9076.841,1977,7840.02
Michigan,8812.047,1977,56803.82
Minnesota,5075.012,1977,79610.08
Mississippi,1884.115,1977,46906.96
Missouri,3132.795,1977,68885.93
Montana,521.291,1977,145552.43
Nebraska,3138.682,1977,76872.41
Nevada,669.029,1977,109825.99
New Hampshire,748.196,1977,8968.1
New Jersey,9437.209,1977,7417.34
New Mexico,881.123,1977,121355.53
New York,46405.838,1977,47213.79
North Carolina,2742.562,1977,48710.88
North Dakota,432.111,1977,68975.93
Ohio,8983.987,1977,40948.38
Oklahoma,2282.718,1977,68667.06
Oregon,3863.131,1977,95996.79
Pennsylvania,17028.461,1977,44816.61
Rhode Island,1096.763,1977,1044.93
South Carolina,2350.466,1977,30109.47
South Dakota,372.015,1977,75884.64
Tennessee,4720.485,1977,41217.12
Texas,14205.004,1977,261797.12
Utah,694.091,1977,82143.65
Vermont,605.112,1977,9249.56
Virginia,4350.171,1977,39594.07
Washington,8296.814,1977,66544.06
West Virginia,1784.276,1977,24077.73
Wisconsin,3988.732,1977,54310.1
Wyoming,478.941,1977,97100.4
Alabama,2539.599,1972,50744
Alaska,755.564,1972,571951.26
Arizona,1249.147,1972,113634.57
Arkansas,967.377,1972,52068.17
California,18005.663,1972,155959.34
Colorado,1363.112,1972,103717.53
Connecticut,4084.012,1972,4844.8
Delaware,805.054,1972,1953.56
Florida,4610.016,1972,53926.82
Georgia,2896.064,1972,57906.14
Hawaii,1092.753,1972,6422.62
Idaho,201.702,1972,82747.21
Illinois,7794.885,1972,55583.58
Indiana,2505.511,1972,35866.9
Iowa,1105.4,1972,55869.36
Kansas,1316.519,1972,81814.88
Kentucky,3309.818,1972,39728.18
Louisiana,3454.137,1972,43561.85
Maine,536.006,1972,30861.55
Maryland,3949.856,1972,9773.82
Massachusetts,5448.085,1972,7840.02
Michigan,6614.907,1972,56803.82
Minnesota,3627.143,1972,79610.08
Mississippi,1333.926,1972,46906.96
Missouri,2532.236,1972,68885.93
Montana,268.513,1972,145552.43
Nebraska,1578.272,1972,76872.41
Nevada,491.039,1972,109825.99
New Hampshire,449.181,1972,8968.1
New Jersey,6617.097,1972,7417.34
New Mexico,435.309,1972,121355.53
New York,31730.533,1972,47213.79
North Carolina,2000.331,1972,48710.88
North Dakota,252.212,1972,68975.93
Ohio,7254.056,1972,40948.38
Oklahoma,1890.598,1972,68667.06
Oregon,1822.735,1972,95996.79
Pennsylvania,10752.747,1972,44816.61
Rhode Island,827.18,1972,1044.93
South Carolina,1319.06,1972,30109.47
South Dakota,133.864,1972,75884.64
Tennessee,3086.805,1972,41217.12
Texas,8821.903,1972,261797.12
Utah,472.335,1972,82143.65
Vermont,494.538,1972,9249.56
Virginia,2797.543,1972,39594.07
Washington,4701.049,1972,66544.06
West Virginia,997.558,1972,24077.73
Wisconsin,2844.785,1972,54310.1
Wyoming,200.789,1972,97100.4
Alabama,1883.275,1967,50744
Alaska,307.025,1967,571951.26
Arizona,797.672,1967,113634.57
Arkansas,628.743,1967,52068.17
California,13174.887,1967,155959.34
Colorado,1034.221,1967,103717.53
Connecticut,2484.66,1967,4844.8
Delaware,649.192,1967,1953.56
Florida,3217.316,1967,53926.82
Georgia,2006.697,1967,57906.14
Hawaii,512.981,1967,6422.62
Idaho,162.072,1967,82747.21
Illinois,5606.176,1967,55583.58
Indiana,1697.657,1967,35866.9
Iowa,708.204,1967,55869.36
Kansas,1013.744,1967,81814.88
Kentucky,1961.435,1967,39728.18
Louisiana,2313.211,1967,43561.85
Maine,327.124,1967,30861.55
Maryland,2498.277,1967,9773.82
Massachusetts,3656.562,1967,7840.02
Michigan,4156.406,1967,56803.82
Minnesota,1892.008,1967,79610.08
Mississippi,934.176,1967,46906.96
Missouri,1631.261,1967,68885.93
Montana,232.953,1967,145552.43
Nebraska,868.565,1967,76872.41
Nevada,319.213,1967,109825.99
New Hampshire,302.313,1967,8968.1
New Jersey,3861.609,1967,7417.34
New Mexico,430.586,1967,121355.53
New York,18480.458,1967,47213.79
North Carolina,1484.893,1967,48710.88
North Dakota,211.407,1967,68975.93
Ohio,4624.633,1967,40948.38
Oklahoma,1397.959,1967,68667.06
Oregon,1022.187,1967,95996.79
Pennsylvania,6849.216,1967,44816.61
Rhode Island,567.707,1967,1044.93
South Carolina,661.163,1967,30109.47
South Dakota,105.155,1967,75884.64
Tennessee,2006.741,1967,41217.12
Texas,5781.69,1967,261797.12
Utah,585.898,1967,82143.65
Vermont,171.595,1967,9249.56
Virginia,1749.716,1967,39594.07
Washington,3717.929,1967,66544.06
West Virginia,635.613,1967,24077.73
Wisconsin,1809.549,1967,54310.1
Wyoming,170.243,1967,97100.4
Alabama,1067.174,1962,50744
Alaska,131.81,1962,571951.26
Arizona,560.502,1962,113634.57
Arkansas,376.158,1962,52068.17
California,8743.498,1962,155959.34
Colorado,701.902,1962,103717.53
Connecticut,1962.882,1962,4844.8
Delaware,346.22,1962,1953.56
Florida,2021.84,1962,53926.82
Georgia,1329.532,1962,57906.14
Hawaii,365.397,1962,6422.62
Idaho,130.488,1962,82747.21
Illinois,4689.865,1962,55583.58
Indiana,1342.306,1962,35866.9
Iowa,516.82,1962,55869.36
Kansas,864.71,1962,81814.88
Kentucky,1152.403,1962,39728.18
Louisiana,1544.009,1962,43561.85
Maine,263.385,1962,30861.55
Maryland,1937.086,1962,9773.82
Massachusetts,2917.807,1962,7840.02
Michigan,3060.07,1962,56803.82
Minnesota,1307.27,1962,79610.08
Mississippi,652.72,1962,46906.96
Missouri,1139.831,1962,68885.93
Montana,188.107,1962,145552.43
Nebraska,648.591,1962,76872.41
Nevada,129.553,1962,109825.99
New Hampshire,185.253,1962,8968.1
New Jersey,2878.493,1962,7417.34
New Mexico,274.323,1962,121355.53
New York,13959.688,1962,47213.79
North Carolina,988.632,1962,48710.88
North Dakota,163.312,1962,68975.93
Ohio,3612.604,1962,40948.38
Oklahoma,886.061,1962,68667.06
Oregon,752.822,1962,95996.79
Pennsylvania,4949.408,1962,44816.61
Rhode Island,353.341,1962,1044.93
South Carolina,515.348,1962,30109.47
South Dakota,69.155,1962,75884.64
Tennessee,1398.364,1962,41217.12
Texas,4178.408,1962,261797.12
Utah,272.316,1962,82143.65
Vermont,103.944,1962,9249.56
Virginia,1304.104,1962,39594.07
Washington,2360.452,1962,66544.06
West Virginia,481.492,1962,24077.73
Wisconsin,1151.278,1962,54310.1
Wyoming,117.374,1962,97100.4
Alabama,623.448,1957,50744
Alaska,44.195,1957,571951.26
Arizona,303.964,1957,113634.57
Delaware,220.21,1957,1953.56
Florida,1278.96,1957,53926.82
Georgia,874.603,1957,57906.14
Hawaii,219.589,1957,6422.62
Idaho,95.419,1957,82747.21
Illinois,3134.315,1957,55583.58
Indiana,800.988,1957,35866.9
Iowa,322.15,1957,55869.36
Arkansas,289.687,1957,52068.17
California,4579.944,1957,155959.34
Colorado,477.547,1957,103717.53
Connecticut,1118.761,1957,4844.8
Kansas,651.208,1957,81814.88
Kentucky,460.842,1957,39728.18
Louisiana,1110.802,1957,43561.85
Maine,194.099,1957,30861.55
Maryland,1446.617,1957,9773.82
Massachusetts,2158.124,1957,7840.02
Michigan,1842.436,1957,56803.82
Minnesota,711.524,1957,79610.08
Mississippi,320.875,1957,46906.96
Missouri,697.155,1957,68885.93
Montana,145.13,1957,145552.43
Nebraska,500.072,1957,76872.41
Nevada,65.86,1957,109825.99
New Hampshire,122.266,1957,8968.1
New Jersey,2279.458,1957,7417.34
New Mexico,201.067,1957,121355.53
New York,9769.192,1957,47213.79
North Carolina,813.8,1957,48710.88
North Dakota,84.754,1957,68975.93
Ohio,2650.566,1957,40948.38
Oklahoma,562.044,1957,68667.06
Oregon,459.441,1957,95996.79
Pennsylvania,3513.819,1957,44816.61
Rhode Island,272.991,1957,1044.93
South Carolina,425.707,1957,30109.47
South Dakota,45.786,1957,75884.64
Tennessee,968.425,1957,41217.12
Texas,2947.07,1957,261797.12
Utah,165.442,1957,82143.65
Vermont,56.375,1957,9249.56
Virginia,790.411,1957,39594.07
Washington,1345.296,1957,66544.06
West Virginia,396.27,1957,24077.73
Wisconsin,592.926,1957,54310.1
Wyoming,66.349,1957,97100.4
