PROVINCE_STATE_NAME,PEOPLE_POSITIVE_NEW_CASES_COUNT,PEOPLE_DEATH_NEW_COUNT,NEW_CASE_FATALITY_RATE,total_population,"State land area, in square miles",NEW_POPULATION_DENSITY
West Virginia,278837,4568,1.6382,1805832,24077.73,75.0001
North Dakota,152818,1832,1.1988,760077,68975.93,11.0195
South Dakota,158267,2270,1.4343,882235,75884.64,11.626
Texas,4261017,72439,1.7,28701845,261797.12,109.6339
California,4982702,72922,1.4635,39557045,155959.34,253.6369
Maryland,567316,10999,1.9388,6042718,9773.82,618.2555
Missouri,882090,13016,1.4756,6126452,68885.93,88.9362
Nebraska,292032,2786,0.954,1929268,76872.41,25.097
Ohio,1580271,25282,1.5999,11689442,40948.38,285.4678
Alabama,837250,15879,1.8966,4887871,50744,96.3241
South Carolina,904689,13898,1.5362,5084127,30109.47,168.8547
Montana,182666,2438,1.3347,1062305,145552.43,7.2984
New Jersey,1209785,28119,2.3243,8908520,7417.34,1201.0397
Virginia,938376,14225,1.5159,8517685,39594.07,215.1253
Wisconsin,909381,9602,1.0559,5813568,54310.1,107.044
Minnesota,826528,9006,1.0896,5611179,79610.08,70.4833
Oklahoma,650269,10879,1.673,3943079,68667.06,57.4232
Arkansas,517000,8522,1.6484,3013825,52068.17,57.8823
Delaware,146207,2124,1.4527,967171,1953.56,495.0813
New Mexico,287221,5137,1.7885,2095428,121355.53,17.2669
Kentucky,760539,10137,1.3329,4468402,39728.18,112.4744
Pennsylvania,1601086,31992,1.9981,12807060,44816.61,285.7659
Iowa,497648,7069,1.4205,3156145,55869.36,56.4915
Maine,108710,1215,1.1177,1338404,30861.55,43.368
Indiana,1040685,16976,1.6312,6691878,35866.9,186.5753
New Hampshire,141707,1613,1.1383,1356458,8968.1,151.2537
Tennessee,1261040,16463,1.3055,6770010,41217.12,164.2524
Massachusetts,867345,19117,2.2041,6902149,7840.02,880.3739
Wyoming,106287,1298,1.2212,577737,97100.4,5.9499
Colorado,775587,8713,1.1234,5695564,103717.53,54.9142
Connecticut,406219,8806,2.1678,3572665,4844.8,737.4226
Nevada,457834,7778,1.6989,3034392,109825.99,27.6291
Idaho,297953,3682,1.2358,1754208,82747.21,21.1996
Illinois,1727932,28901,1.6726,12741080,55583.58,229.2238
Washington,746860,8908,1.1927,7535591,66544.06,113.2421
Arizona,1195483,21486,1.7973,7171646,113634.57,63.1115
Georgia,1608989,28580,1.7763,10519475,57906.14,181.6642
New York,2597571,56323,2.1683,19542209,47213.79,413.9089
Florida,3662957,60418,1.6494,21299325,53926.82,394.9672
Hawaii,82454,959,1.1631,1420491,6422.62,221.17
Michigan,1317252,24003,1.8222,9995915,56803.82,175.9726
Utah,566249,3313,0.5851,3161105,82143.65,38.4826
Alaska,142893,802,0.5613,737438,571951.26,1.2893
Mississippi,507476,10178,2.0056,2986530,46906.96,63.6692
North Carolina,1497516,18356,1.2258,10383620,48710.88,213.1684
Vermont,42716,387,0.906,626299,9249.56,67.7112
Rhode Island,182175,2884,1.5831,1057315,1044.93,1011.8525
Louisiana,763133,14649,1.9196,4659978,43561.85,106.9738
Oregon,375357,4655,1.2402,4190713,95996.79,43.6547
Kansas,443223,6565,1.4812,2911510,81814.88,35.5866
